{
  "version": 1,
  "author": "Dmitrii Kirilov",
  "editor": "wokwi",
  "parts": [
    { "type": "wokwi-breadboard-half", "id": "bb1", "top": -300.6, "left": -83.6, "attrs": {} },
    { "type": "wokwi-arduino-uno", "id": "uno", "top": 0.6, "left": -163.8, "attrs": {} },
    {
      "type": "wokwi-pushbutton-6mm",
      "id": "btn1",
      "top": -210.2,
      "left": -63.2,
      "rotate": 90,
      "attrs": { "color": "green" }
    },
    {
      "type": "wokwi-pushbutton-6mm",
      "id": "btn2",
      "top": -209.4,
      "left": -22.4,
      "rotate": 270,
      "attrs": { "color": "red" }
    },
    {
      "type": "wokwi-resistor",
      "id": "r1",
      "top": -254.4,
      "left": -67.75,
      "rotate": 90,
      "attrs": { "value": "1000" }
    },
    {
      "type": "wokwi-resistor",
      "id": "r2",
      "top": -254.4,
      "left": -29.35,
      "rotate": 90,
      "attrs": { "value": "1000" }
    },
    {
      "type": "wokwi-resistor",
      "id": "r3",
      "top": -254.4,
      "left": 37.85,
      "rotate": 90,
      "attrs": { "value": "1000" }
    },
    {
      "type": "wokwi-led",
      "id": "led1",
      "top": -253.2,
      "left": 51.8,
      "attrs": { "color": "red" }
    },
    {
      "type": "wokwi-buzzer",
      "id": "bz1",
      "top": -324,
      "left": 97.8,
      "attrs": { "volume": "0.1" }
    },
    {
      "type": "wokwi-resistor",
      "id": "r4",
      "top": -369.6,
      "left": 28.25,
      "rotate": 90,
      "attrs": { "value": "1000" }
    }
  ],
  "connections": [
    [ "btn1:1.l", "bb1:3t.e", "", [ "$bb" ] ],
    [ "btn1:2.l", "bb1:1t.e", "", [ "$bb" ] ],
    [ "btn1:1.r", "bb1:3b.f", "", [ "$bb" ] ],
    [ "btn1:2.r", "bb1:1b.f", "", [ "$bb" ] ],
    [ "btn2:1.l", "bb1:5b.f", "", [ "$bb" ] ],
    [ "btn2:2.l", "bb1:7b.f", "", [ "$bb" ] ],
    [ "btn2:1.r", "bb1:5t.e", "", [ "$bb" ] ],
    [ "btn2:2.r", "bb1:7t.e", "", [ "$bb" ] ],
    [ "uno:5V", "bb1:bp.25", "red", [ "h224.6", "v-306.4" ] ],
    [ "uno:GND.2", "bb1:bn.25", "black", [ "h205.5", "v-296.4" ] ],
    [ "bb1:bp.1", "bb1:1b.g", "green", [ "v0" ] ],
    [ "bb1:bp.4", "bb1:5b.g", "green", [ "v0" ] ],
    [ "uno:13", "bb1:3b.g", "green", [ "v0" ] ],
    [ "uno:12", "bb1:7b.g", "green", [ "v0" ] ],
    [ "bb1:bn.24", "bb1:tn.24", "green", [ "v0" ] ],
    [ "r1:1", "bb1:tn.2", "", [ "$bb" ] ],
    [ "r1:2", "bb1:3t.d", "", [ "$bb" ] ],
    [ "r2:2", "bb1:7t.d", "", [ "$bb" ] ],
    [ "r2:1", "bb1:tn.6", "green", [ "h0" ] ],
    [ "r3:1", "bb1:tn.11", "", [ "$bb" ] ],
    [ "r3:2", "bb1:14t.d", "", [ "$bb" ] ],
    [ "led1:A", "bb1:15t.e", "", [ "$bb" ] ],
    [ "led1:C", "bb1:14t.e", "", [ "$bb" ] ],
    [ "uno:11", "bb1:15t.d", "green", [ "v-76.8", "h96.6" ] ],
    [ "bb1:20t.a", "bb1:tn.16", "green", [ "v0" ] ],
    [ "bz1:1", "bb1:20t.b", "", [ "$bb" ] ],
    [ "bz1:2", "bb1:21t.b", "", [ "$bb" ] ],
    [ "uno:10", "bb1:21t.c", "green", [ "h144.7", "v-240" ] ]
  ],
  "dependencies": {}
}
